{
  "apps": [
    {
      "name": "universal-bot-framework-development",
      "script": "app.js",
      "env": {
        "STAGE": "development",
        "HTTP_PORT": 9000
      },
      "watch": true,
      "ignore_watch": [
        "node_modules",
        "log",
        "newrelic_agent.log",
        "npm-debug.log",
        ".git",
        ".idea"
      ],
      "instances": 1,
      "exec_mode": "cluster_mode",
      "node_args": "",
      "max_restarts": 15,
      "merge_logs": true,
      "cwd": "/var/app/development/",
      "error_file": "/var/app/development/log/api.stderr.log",
      "out_file": "/var/app/development/log/api.stdout.log"
    }
  ]
}